<svg xmlns="http://www.w3.org/2000/svg" width="74.67" height="140" viewBox="0 0 74.67 140">
  <g id="battery" transform="translate(-14)">
    <rect id="Rectangle_733" data-name="Rectangle 733" width="74.67" height="28.398" transform="translate(14 44.144)" fill="#43b05c"/>
    <rect id="Rectangle_734" data-name="Rectangle 734" width="74.67" height="28.398" transform="translate(14 76.783)" fill="#43b05c"/>
    <path id="Path_554" data-name="Path 554" d="M80.587,9.466H65.336V0h-28V9.466H22.083A8.15,8.15,0,0,0,14,17.663V40.23H88.67V17.663A8.15,8.15,0,0,0,80.587,9.466Z" transform="translate(0)" fill="#43b05c"/>
    <path id="Path_555" data-name="Path 555" d="M14,69.567a8.15,8.15,0,0,0,8.083,8.2h58.5a8.15,8.15,0,0,0,8.083-8.2V47H14Z" transform="translate(0 62.236)" fill="#43b05c"/>
  </g>
</svg>
